Reproducible computation at scale in R
…
* High-performance computing with `targets`: <https://books.ropensci.org/targets/hpc.html>
* Distributed computing available, not just multicore: SLURM, SGE, TORQUE, PBS, LSF 
* Persistent workers with the [`clustermq`](https://mschubert.github.io/clustermq/) package: `tar_make_clustermq()`
* Transient workers with the [`future`](https://future.futureverse.org/) package: `tar_make_future()`

---

## Simulation results

```r
tar_read(model)
#> # A tibble: 22,000 x 8
#>    variable   q2.5 q97.5  rhat .join_data .rep     .file      .name
#>    <chr>     <dbl> <dbl> <dbl>      <dbl> <chr>    <chr>      <chr>
#>  1 alpha     0.575  1.92  1.00      0.768 14556f0a model.stan model
#>  2 beta[1]  -1.34   1.50  1.00      0.163 14556f0a model.stan model
#>  3 beta[2]  -0.620  2.51  1.00      1.14  14556f0a model.stan model
#>  4 beta[3]  -1.81   1.67  1.00      1.03  14556f0a model.stan model
#>  5 beta[4]  -2.22   1.51  1.00      0.638 14556f0a model.stan model
#>  6 beta[5]  -1.97   1.99  1.00     -1.03  14556f0a model.stan model
#>  7 beta[6]  -1.99   1.90  1.00     -0.348 14556f0a model.stan model
#>  8 beta[7]  -1.28   2.52  1.00     -0.570 14556f0a model.stan model
#>  9 beta[8]  -1.80   1.63  1.00      0.832 14556f0a model.stan model
#> 10 beta[9]  -1.84   1.33  1.00      0.551 14556f0a model.stan model
# … with 21,990 more rows
```
…
